{
  "type": "biome",
  "domain": "abyssalcraft",
  "temperature": 2,
  "precipitation": 3,
  "uplift": {
    "max": 1
  },
  "erosion": {
    "max": 1
  },
  "volcanism": {
    "min": 2
  },
  "era": {
    "max": 1
  },
  "density": {
    "min": 2
  }
}
