{
  "type": "biome",
  "domain": "abyssalcraft",
  "temperature": 2,
  "precipitation": {
    "min": 1,
    "max": 2
  },
  "erosion": {
    "min": 2
  },
  "uplift": 2,
  "volcanism": {
    "min": 2
  },
  "era": {
    "max": 1
  },
  "density": 3
}

